{
  "errors": [],
  "results": [
    {
      "check_id": "print_error_rule",
      "end": {
        "col": 19,
        "line": 4,
        "offset": 86
      },
      "extra": {
        "is_ignored": false,
        "lines": "    print(\"Error\")",
        "message": "Alarm! Semgrep found a match.",
        "metadata": {},
        "metavars": {},
        "severity": "WARNING"
      },
      "path": "main.py",
      "start": {
        "col": 5,
        "line": 4,
        "offset": 72
      }
    }
  ]
}
